<?xml version="1.0" encoding="UTF-8" standalone="no"?>
<svg
   xmlns:dc="http://purl.org/dc/elements/1.1/"
   xmlns:cc="http://creativecommons.org/ns#"
   xmlns:rdf="http://www.w3.org/1999/02/22-rdf-syntax-ns#"
   xmlns:svg="http://www.w3.org/2000/svg"
   xmlns="http://www.w3.org/2000/svg"
   xmlns:sodipodi="http://sodipodi.sourceforge.net/DTD/sodipodi-0.dtd"
   xmlns:inkscape="http://www.inkscape.org/namespaces/inkscape"
   version="1.1"
   id="svg1293"
   width="300"
   height="300"
   viewBox="0 0 300 300"
   sodipodi:docname="China_road_sign_禁_39 (40).svg"
   inkscape:version="1.0 (4035a4fb49, 2020-05-01)">
  <metadata
     id="metadata1299">
    <rdf:RDF>
      <cc:Work
         rdf:about="">
        <dc:format>image/svg+xml</dc:format>
        <dc:type
           rdf:resource="http://purl.org/dc/dcmitype/StillImage" />
        <dc:title />
      </cc:Work>
    </rdf:RDF>
  </metadata>
  <defs
     id="defs1297" />
  <sodipodi:namedview
     inkscape:document-rotation="0"
     pagecolor="#ffffff"
     bordercolor="#666666"
     borderopacity="1"
     objecttolerance="10"
     gridtolerance="10"
     guidetolerance="10"
     inkscape:pageopacity="0"
     inkscape:pageshadow="2"
     inkscape:window-width="1920"
     inkscape:window-height="1001"
     id="namedview1295"
     showgrid="false"
     inkscape:zoom="2.3906258"
     inkscape:cx="50.702837"
     inkscape:cy="200.83727"
     inkscape:window-x="-9"
     inkscape:window-y="-9"
     inkscape:window-maximized="1"
     inkscape:current-layer="g1301" />
  <g
     inkscape:groupmode="layer"
     inkscape:label="Image"
     id="g1301"
     transform="translate(2.8026251e-4,-21.837122)">
    <g
       transform="matrix(0.74996596,-0.00707162,0.00707162,0.74996596,369.88551,24.049091)"
       id="g3929"
       inkscape:label="Image"
       style="opacity:1">
      <g
         inkscape:label="Image"
         id="g3722"
         transform="matrix(0.85382035,0,0,0.85382035,-493.97813,-7.7682848)">
        <g
           id="g3720"
           transform="matrix(1.2901279,0,0,1.2901279,-1.2275844,2.3962852)">
          <path
             id="path3714"
             d="M 362.52362,181.56447 A 180.9592,180.9592 0 0 1 181.56442,362.52367 180.9592,180.9592 0 0 1 0.60522461,181.56447 180.9592,180.9592 0 0 1 181.56442,0.60527039 180.9592,180.9592 0 0 1 362.52362,181.56447 Z"
             style="color:#000000;display:inline;overflow:visible;visibility:visible;opacity:1;fill:#ffffff;fill-opacity:1;stroke:#000000;stroke-width:1.21043;stroke-miterlimit:4;stroke-dasharray:none;stroke-opacity:1;marker:none;enable-background:accumulate" />
        </g>
      </g>
      <g
         transform="matrix(1.2189513,0,0,1.2189513,-495.96377,-8.4666747)"
         inkscape:label="Image"
         id="g1122">
        <g
           inkscape:label="Image"
           id="g3929-2"
           transform="matrix(0.85382035,0,0,0.85382035,-246.55141,544.07557)">
          <g
             transform="translate(-493.79868,-8.1185834)"
             id="g3722-4"
             inkscape:label="Image">
            <g
               transform="matrix(1.0595545,0,0,1.0595545,140.15804,-108.85065)"
               id="g3720-5">
              <path
                 id="path884"
                 style="fill:#000000;fill-opacity:1;fill-rule:evenodd;stroke:none;stroke-width:7.6209"
                 d="M 200,6.6660156 A 193.33353,193.33353 0 0 0 6.6660156,200 193.33353,193.33353 0 0 0 94.769531,362.18555 193.33353,193.33353 0 0 0 200,393.33398 193.33353,193.33353 0 0 0 393.33398,200 193.33353,193.33353 0 0 0 200,6.6660156 Z m 0,36.5527344 a 157.128,157.128 0 0 1 0.002,0 157.128,157.128 0 0 1 0.16407,0 157.128,157.128 0 0 1 87.27343,26.466797 L 69.505859,287.62305 A 157.128,157.128 0 0 1 43.037109,200.34766 157.128,157.128 0 0 1 200,43.21875 Z m 93.66406,30.847656 A 157.128,157.128 0 0 1 299.5,78.601562 L 78.419922,299.68164 a 157.128,157.128 0 0 1 -4.533203,-5.83398 z m 11.54883,9.429688 a 157.128,157.128 0 0 1 5.33984,5.029297 L 88.345703,310.73438 a 157.128,157.128 0 0 1 -5.03125,-5.33985 z m 10.55273,10.427734 a 157.128,157.128 0 0 1 4.84766,5.521484 L 99.261719,320.79492 a 157.128,157.128 0 0 1 -5.521485,-4.84961 z m 9.55469,11.423832 a 157.128,157.128 0 0 1 4.34961,6.01953 L 111.18359,329.85156 a 157.128,157.128 0 0 1 -6.01953,-4.34765 z m 8.53321,12.43945 a 157.128,157.128 0 0 1 23.43945,82.56055 157.128,157.128 0 0 1 -157.12695,157.12695 157.128,157.128 0 0 1 -82.5586,-23.4375 z"
                 transform="matrix(0.90682575,0,0,0.90682575,607.1458,-488.52484)" />
            </g>
          </g>
        </g>
        <ellipse
           ry="163.52841"
           rx="163.52853"
           cy="166.32684"
           cx="164.84457"
           style="color:#000000;display:inline;overflow:visible;visibility:visible;opacity:1;fill:none;stroke:#000000;stroke-width:1.09383;stroke-miterlimit:4;stroke-dasharray:none;stroke-opacity:1;marker:none;enable-background:accumulate"
           id="path3003" />
        <g
           transform="matrix(0.68364771,0,0,-0.68364711,7.8849452,335.48921)"
           id="g5160">
          <g
             id="g5162" />
        </g>
      </g>
    </g>
    <g
       style="font-style:normal;font-weight:normal;font-size:131.634px;line-height:1.25;font-family:sans-serif;opacity:1;fill:#000000;fill-opacity:1;stroke:none;stroke-width:3.29086"
       id="text1353"
       transform="scale(0.83105409,1.2032911)"
       aria-label="40">
      <path
         d="m 237.91133,107.24952 q -9.34601,0 -16.71752,9.08275 -7.23987,8.95111 -7.23987,24.08902 0,13.29504 6.1868,23.16759 6.9766,10.79399 17.77059,10.79399 11.05726,0 17.63896,-10.92563 6.05516,-9.74091 6.05516,-23.03595 0,-13.1634 -6.05516,-22.77268 -6.5817,-10.39909 -17.63896,-10.39909 z m 0,87.93152 q -20.9298,0 -33.3034,-16.98079 -11.18889,-15.26954 -11.18889,-37.77896 0,-22.50941 11.32052,-37.64732 12.3736,-16.585886 33.17177,-16.585886 21.06144,0 33.30341,16.717516 11.05725,15.13791 11.05725,37.25242 0,22.37779 -11.32052,38.04223 -12.3736,16.98079 -33.04014,16.98079 z m -98.56096,-42.91269 v -34.75137 l -33.96157,34.75137 z m 0,40.93818 V 172.27672 H 76.824219 V 152.66325 L 139.87691,87.899326 h 19.61346 v 64.237394 h 10.79399 v 20.14 h -10.79399 v 20.92981 z"
         style="font-style:normal;font-variant:normal;font-weight:normal;font-stretch:normal;font-family:BywayEMod;-inkscape-font-specification:BywayEMod;fill:#000000;stroke-width:3.29086"
         id="path6529" />
    </g>
  </g>
</svg>
